simulation/qsim/LogicalStep_Lab2.msim.vcd
$comment
	File created using the following command:
		vcd file LogicalStep_Lab2.msim.vcd -direction
$end
$date
	Wed Feb 13 22:22:53 2019
$end
$version
	ModelSim Version 10.4b
$end
$timescale
	1ps
$end

$scope module LogicalStep_Lab2_top_vlg_vec_tst $end
$var reg 1 ! clkin_50 $end
$var reg 4 " pb [3:0] $end
$var reg 8 # sw [7:0] $end
$var wire 1 $ leds [7] $end
$var wire 1 % leds [6] $end
$var wire 1 & leds [5] $end
$var wire 1 ' leds [4] $end
$var wire 1 ( leds [3] $end
$var wire 1 ) leds [2] $end
$var wire 1 * leds [1] $end
$var wire 1 + leds [0] $end
$var wire 1 , seg7_char1 $end
$var wire 1 - seg7_char2 $end
$var wire 1 . seg7_data [6] $end
$var wire 1 / seg7_data [5] $end
$var wire 1 0 seg7_data [4] $end
$var wire 1 1 seg7_data [3] $end
$var wire 1 2 seg7_data [2] $end
$var wire 1 3 seg7_data [1] $end
$var wire 1 4 seg7_data [0] $end

$scope module i1 $end
$var wire 1 5 gnd $end
$var wire 1 6 vcc $end
$var wire 1 7 unknown $end
$var tri1 1 8 devclrn $end
$var tri1 1 9 devpor $end
$var tri1 1 : devoe $end
$var wire 1 ; ~QUARTUS_CREATED_GND~I_combout $end
$var wire 1 < ~QUARTUS_CREATED_UNVM~~busy $end
$var wire 1 = ~QUARTUS_CREATED_ADC1~~eoc $end
$var wire 1 > seg7_data[1]~output_o $end
$var wire 1 ? seg7_data[5]~output_o $end
$var wire 1 @ seg7_data[6]~output_o $end
$var wire 1 A leds[0]~output_o $end
$var wire 1 B leds[1]~output_o $end
$var wire 1 C leds[2]~output_o $end
$var wire 1 D leds[3]~output_o $end
$var wire 1 E leds[4]~output_o $end
$var wire 1 F leds[5]~output_o $end
$var wire 1 G leds[6]~output_o $end
$var wire 1 H leds[7]~output_o $end
$var wire 1 I seg7_data[0]~output_o $end
$var wire 1 J seg7_data[2]~output_o $end
$var wire 1 K seg7_data[3]~output_o $end
$var wire 1 L seg7_data[4]~output_o $end
$var wire 1 M seg7_char1~output_o $end
$var wire 1 N seg7_char2~output_o $end
$var wire 1 O pb[3]~input_o $end
$var wire 1 P sw[7]~input_o $end
$var wire 1 Q pb[0]~input_o $end
$var wire 1 R pb[1]~input_o $end
$var wire 1 S pb[2]~input_o $end
$var wire 1 T INST1|Mux1~0_combout $end
$var wire 1 U Mux0~0_combout $end
$var wire 1 V sw[6]~input_o $end
$var wire 1 W Mux1~0_combout $end
$var wire 1 X sw[5]~input_o $end
$var wire 1 Y Mux2~0_combout $end
$var wire 1 Z sw[4]~input_o $end
$var wire 1 [ sw[3]~input_o $end
$var wire 1 \ sw[2]~input_o $end
$var wire 1 ] sw[1]~input_o $end
$var wire 1 ^ sw[0]~input_o $end
$var wire 1 _ INST4|Add0~1 $end
$var wire 1 ` INST4|Add0~3 $end
$var wire 1 a INST4|Add0~5 $end
$var wire 1 b INST4|Add0~7 $end
$var wire 1 c INST4|Add0~8_combout $end
$var wire 1 d Mux3~0_combout $end
$var wire 1 e INST6|Mux5~0_combout $end
$var wire 1 f INST4|Add0~4_combout $end
$var wire 1 g Mux5~0_combout $end
$var wire 1 h INST4|Add0~2_combout $end
$var wire 1 i Mux6~0_combout $end
$var wire 1 j INST4|Add0~6_combout $end
$var wire 1 k Mux4~0_combout $end
$var wire 1 l INST4|Add0~0_combout $end
$var wire 1 m Mux7~0_combout $end
$var wire 1 n INST7|Mux5~0_combout $end
$var wire 1 o clkin_50~input_o $end
$var wire 1 p clkin_50~inputclkctrl_outclk $end
$var wire 1 q INST8|clk_proc:COUNT[0]~0_combout $end
$var wire 1 r INST8|clk_proc:COUNT[0]~q $end
$var wire 1 s INST8|clk_proc:COUNT[1]~1_combout $end
$var wire 1 t INST8|clk_proc:COUNT[1]~q $end
$var wire 1 u INST8|clk_proc:COUNT[1]~2 $end
$var wire 1 v INST8|clk_proc:COUNT[2]~1_combout $end
$var wire 1 w INST8|clk_proc:COUNT[2]~q $end
$var wire 1 x INST8|clk_proc:COUNT[2]~2 $end
$var wire 1 y INST8|clk_proc:COUNT[3]~1_combout $end
$var wire 1 z INST8|clk_proc:COUNT[3]~q $end
$var wire 1 { INST8|clk_proc:COUNT[3]~2 $end
$var wire 1 | INST8|clk_proc:COUNT[4]~1_combout $end
$var wire 1 } INST8|clk_proc:COUNT[4]~q $end
$var wire 1 ~ INST8|clk_proc:COUNT[4]~2 $end
$var wire 1 !! INST8|clk_proc:COUNT[5]~1_combout $end
$var wire 1 "! INST8|clk_proc:COUNT[5]~q $end
$var wire 1 #! INST8|clk_proc:COUNT[5]~2 $end
$var wire 1 $! INST8|clk_proc:COUNT[6]~1_combout $end
$var wire 1 %! INST8|clk_proc:COUNT[6]~q $end
$var wire 1 &! INST8|clk_proc:COUNT[6]~2 $end
$var wire 1 '! INST8|clk_proc:COUNT[7]~1_combout $end
$var wire 1 (! INST8|clk_proc:COUNT[7]~q $end
$var wire 1 )! INST8|clk_proc:COUNT[7]~2 $end
$var wire 1 *! INST8|clk_proc:COUNT[8]~1_combout $end
$var wire 1 +! INST8|clk_proc:COUNT[8]~q $end
$var wire 1 ,! INST8|clk_proc:COUNT[8]~2 $end
$var wire 1 -! INST8|clk_proc:COUNT[9]~1_combout $end
$var wire 1 .! INST8|clk_proc:COUNT[9]~q $end
$var wire 1 /! INST8|clk_proc:COUNT[9]~2 $end
$var wire 1 0! INST8|clk_proc:COUNT[10]~1_combout $end
$var wire 1 1! INST8|clk_proc:COUNT[10]~q $end
$var wire 1 2! INST8|DOUT_TEMP[1]~0_combout $end
$var wire 1 3! INST7|Mux1~0_combout $end
$var wire 1 4! INST6|Mux1~0_combout $end
$var wire 1 5! INST8|DOUT_TEMP[5]~1_combout $end
$var wire 1 6! INST6|Mux0~0_combout $end
$var wire 1 7! INST7|Mux0~0_combout $end
$var wire 1 8! INST8|DOUT_TEMP[6]~2_combout $end
$var wire 1 9! INST9|Mux3~0_combout $end
$var wire 1 :! INST9|Mux3~1_combout $end
$var wire 1 ;! INST9|Mux3~2_combout $end
$var wire 1 <! INST9|Mux0~1_combout $end
$var wire 1 =! INST9|Mux0~2_combout $end
$var wire 1 >! INST9|Mux0~3_combout $end
$var wire 1 ?! INST9|Mux0~0_combout $end
$var wire 1 @! INST9|Mux0~4_combout $end
$var wire 1 A! INST10|Mux0~0_combout $end
$var wire 1 B! INST9|Mux2~0_combout $end
$var wire 1 C! INST9|Mux2~1_combout $end
$var wire 1 D! INST9|Mux2~2_combout $end
$var wire 1 E! INST9|Mux1~0_combout $end
$var wire 1 F! INST9|Mux1~1_combout $end
$var wire 1 G! INST9|Mux1~2_combout $end
$var wire 1 H! Mux15~0_combout $end
$var wire 1 I! INST10|DOUT[0]~2_combout $end
$var wire 1 J! INST10|DOUT[1]~9_combout $end
$var wire 1 K! INST10|DOUT[1]~3_combout $end
$var wire 1 L! INST10|DOUT[2]~4_combout $end
$var wire 1 M! INST10|DOUT[3]~5_combout $end
$var wire 1 N! Mux11~0_combout $end
$var wire 1 O! INST10|DOUT[5]~6_combout $end
$var wire 1 P! INST10|DOUT[4]~7_combout $end
$var wire 1 Q! INST10|DOUT[5]~8_combout $end
$var wire 1 R! INST7|Mux6~0_combout $end
$var wire 1 S! INST6|Mux6~0_combout $end
$var wire 1 T! INST8|DOUT[0]~0_combout $end
$var wire 1 U! INST6|Mux4~0_combout $end
$var wire 1 V! INST7|Mux4~0_combout $end
$var wire 1 W! INST8|DOUT[2]~2_combout $end
$var wire 1 X! INST6|Mux3~0_combout $end
$var wire 1 Y! INST7|Mux3~0_combout $end
$var wire 1 Z! INST8|DOUT[3]~3_combout $end
$var wire 1 [! INST6|Mux2~0_combout $end
$var wire 1 \! INST7|Mux2~0_combout $end
$var wire 1 ]! INST8|DOUT[4]~4_combout $end
$upscope $end
$upscope $end
$enddefinitions $end
#0
$dumpvars
x!
b1110 "
b0 #
0+
0*
0)
0(
0'
0&
0%
0$
0,
1-
14
z3
12
11
10
z/
0.
05
16
x7
18
19
1:
0;
z<
z=
z>
z?
0@
0A
0B
0C
0D
0E
0F
0G
0H
1I
1J
1K
1L
0M
1N
1O
0P
0Q
1R
1S
1T
0U
0V
0W
0X
0Y
0Z
0[
0\
0]
0^
0_
1`
0a
1b
0c
0d
0e
0f
0g
0h
0i
0j
0k
0l
0m
0n
xo
xp
1q
0r
0s
0t
0u
0v
0w
1x
0y
0z
0{
0|
0}
1~
0!!
0"!
0#!
0$!
0%!
1&!
0'!
0(!
0)!
0*!
0+!
1,!
0-!
0.!
0/!
00!
01!
12!
03!
04!
15!
06!
07!
08!
09!
1:!
0;!
1<!
1=!
0>!
1?!
0@!
1A!
1B!
0C!
0D!
1E!
0F!
0G!
0H!
0I!
0J!
0K!
0L!
0M!
0N!
0O!
0P!
0Q!
0R!
0S!
0T!
0U!
0V!
0W!
0X!
0Y!
0Z!
0[!
0\!
0]!
$end
#20000
b1000 #
1[
1k
1j
17!
18!
z@
z.
#25000
b10001000 #
1P
1>!
0b
0j
1U
1@!
1c
16!
1M!
1D
1(
#40000
b10001100 #
b10000100 #
0[
1\
0>!
0k
1b
1j
1g
1f
0@!
1\!
1Y!
1R!
0c
1]!
1Z!
1T!
0M!
0D
0I
0K
0L
00
01
04
0(
#50000
b11000100 #
b1000100 #
0P
1V
0j
0U
1F!
0E!
1a
0f
1W
1[!
1X!
1S!
1G!
1j
1L!
1C
1)
#60000
b1001100 #
1[
1k
0b
0j
0\!
0Y!
1V!
13!
1n
1c
0]!
0Z!
1W!
1N!
05!
02!
0>
0?
0J
1K
1L
10
11
02
0/
03
#75000
b11001100 #
1P
1>!
1j
1U
1@!
0[!
0X!
1U!
14!
1e
0N!
1M!
1D
1(
#80000
b11001110 #
b11001010 #
b11000010 #
0[
0\
1]
0>!
0k
0j
0F!
1E!
0g
0a
1f
1i
1h
0@!
0R!
0n
0G!
1b
1j
1N!
0T!
0c
0M!
12!
0L!
0C
z>
0D
1I
0N!
14
0(
z3
0)
#100000
b11100010 #
b10100010 #
b100010 #
b101010 #
0P
0V
1X
1[
0U
0f
0W
1C!
0B!
0`
0h
1Y
1k
0S!
0e
1D!
1f
1Y!
0V!
03!
1Z!
0W!
1K!
15!
z?
1B
1J
0K
01
12
1*
z/
#120000
b101110 #
b100110 #
0[
1\
0k
0j
1g
1a
0f
0Y!
1n
1j
0Z!
02!
0>
1K
11
03
#125000
b10100110 #
1P
0b
0j
1U
1c
1X!
0U!
04!
1N!
#140000
b10101110 #
1[
1>!
1k
1j
1@!
1V!
0N!
1W!
1M!
1D
0J
02
1(
#150000
b11101110 #
b1101110 #
0P
1V
0>!
0j
0U
1F!
0E!
1f
1W
0@!
0X!
1e
1G!
1N!
1H!
1O!
0M!
1L!
1C
0D
1J!
0(
1)
1P!
1E
1'
0K!
0B
0*
#160000
b1101111 #
b1101101 #
b1101001 #
b1100001 #
0[
0\
0]
1^
0k
1b
1j
0F!
1E!
0g
0f
0C!
1B!
0i
1`
1h
1m
1l
1\!
1Y!
0V!
1R!
07!
13!
0n
0c
0G!
0D!
0a
1f
1M!
0L!
1K!
1I!
1A
1B
0C
1D
1]!
1Z!
0W!
1T!
0N!
0O!
0H!
0j
1(
0)
1*
1+
08!
05!
12!
1L!
1C
z>
0?
0@
0I
1J
0K
0L
0J!
00
01
12
04
0.
0/
z3
1)
0P!
0I!
0M!
0D
0A
0E
0'
0+
0(
0L!
0K!
0B
0C
0)
0*
#175000
b11100001 #
1P
1j
1U
1U!
#180000
b11101001 #
1[
1>!
1k
0b
0j
1@!
0Y!
0R!
17!
03!
1c
0Z!
0T!
1M!
18!
15!
z?
z@
1D
1I
1K
11
14
1(
z.
z/
#200000
b11111001 #
b11011001 #
b10011001 #
b10011101 #
b11101 #
b10101 #
0P
0V
0X
1Z
0[
1\
0>!
1b
0U
0W
0h
0Y
19!
1d
1_
0l
0k
1g
0@!
0c
1[!
1X!
0U!
1S!
06!
14!
0e
0:!
1h
1n
1;!
0M!
02!
0>
0D
0(
03
1I!
1A
1+
#220000
b11101 #
1[
1k
1j
0\!
1R!
13!
0n
0]!
1T!
05!
12!
z>
0?
0I
1L
10
04
0/
z3
#225000
b10011101 #
1P
1>!
0b
0j
1U
1@!
1c
0X!
0S!
16!
04!
1N!
1M!
1D
1(
#240000
b10011111 #
b10011011 #
b10010011 #
0[
0\
1]
0>!
0k
1b
1j
0g
0f
1i
0`
0h
0@!
1\!
0R!
0c
1f
0N!
1]!
0T!
0M!
0D
1I
0L
00
14
0(
#250000
b11010011 #
b1010011 #
0P
1V
0j
0U
1a
0f
1W
1e
1j
#260000
b1011011 #
1[
1k
0b
0j
0\!
1R!
03!
1n
1c
0]!
1T!
15!
02!
0>
z?
0I
1L
10
04
z/
03
#275000
b11011011 #
1P
1>!
1j
1U
1@!
0[!
1S!
14!
0e
1N!
1M!
1D
1(
#280000
b11011111 #
b11010111 #
0[
1\
0>!
0k
0j
1F!
0E!
1g
1f
0@!
1\!
1Y!
0R!
07!
13!
0n
1G!
0N!
1]!
1Z!
0T!
0M!
08!
05!
12!
1L!
1C
z>
0?
0@
0D
1I
0K
0L
00
01
14
0(
0.
0/
z3
1)
#300000
b11110111 #
b10110111 #
b110111 #
b111111 #
0P
0V
1X
1[
0U
0F!
1E!
0f
0W
1C!
0B!
1h
1Y
1k
1[!
0S!
0G!
1D!
0\!
1V!
17!
03!
1n
0]!
1W!
0L!
1K!
18!
15!
02!
0>
z?
z@
1B
0C
0J
1L
10
02
0)
1*
z.
z/
03
#320000
b111110 #
b111100 #
b111000 #
b110000 #
0[
0\
0]
0^
0k
1b
1j
0g
0a
1f
0C!
1B!
0i
0h
09!
0m
0_
1l
0Y!
0V!
07!
0n
0c
0j
0D!
1:!
1`
1h
0Z!
0W!
0;!
0f
08!
12!
0K!
0B
z>
0@
1J
1K
11
12
0.
z3
0*
0I!
0A
0+
#325000
b10110000 #
1P
1j
1U
0[!
1S!
04!
1e
#340000
b10111000 #
1[
1>!
1k
0b
0j
1@!
17!
1c
1M!
18!
z@
1D
1(
z.
#350000
b11111000 #
b1111000 #
0P
1V
0>!
1b
1j
0U
1f
1W
0@!
0c
1[!
1X!
0S!
06!
14!
0e
0M!
0D
0(
#360000
b1111100 #
b1110100 #
0[
1\
0k
0j
1F!
0E!
1g
1a
0f
1\!
1Y!
1R!
1G!
1j
1]!
1Z!
1T!
1L!
1C
0I
0K
0L
00
01
04
1)
#375000
b11110100 #
1P
0b
0j
1U
1c
0[!
1U!
16!
04!
1e
1N!
#380000
b11111100 #
1[
1>!
1k
1j
1@!
0\!
0Y!
1V!
13!
1n
0N!
0]!
0Z!
1W!
1M!
05!
02!
0>
0?
1D
0J
1K
1L
10
11
02
1(
0/
03
#400000
b11101100 #
b11001100 #
b11001110 #
b10001110 #
b10001010 #
b1010 #
b10 #
0P
0V
0X
0Z
0[
0\
1]
0>!
1b
0U
0F!
1E!
0a
0W
0Y
0d
0l
0k
0g
1i
0@!
0c
0X!
0U!
06!
0e
0G!
0j
0R!
0n
0T!
0M!
12!
0L!
0C
z>
0D
1I
14
0(
z3
0)
#420000
b1010 #
1[
1k
1j
1Y!
0V!
03!
1Z!
0W!
15!
z?
1J
0K
01
12
z/
#425000
b10001010 #
1P
1>!
0b
0j
1U
1@!
1c
16!
1M!
1D
1(
#440000
b10001110 #
b10000110 #
0[
1\
0>!
0k
1b
1j
1g
1f
0@!
0Y!
1n
0c
0Z!
0M!
02!
0>
0D
1K
11
0(
03
#450000
b11000110 #
b1000110 #
0P
1V
0j
0U
1F!
0E!
1a
0f
1W
1[!
1X!
1S!
1G!
1j
1L!
1C
1)
#460000
b1001110 #
1[
1k
0b
0j
1V!
1c
1W!
1N!
0J
02
#475000
b11001110 #
1P
1>!
1j
1U
1@!
0[!
0X!
1U!
14!
1e
0N!
1M!
1D
1(
#480000
b11001111 #
b11001101 #
b11001001 #
b11000001 #
0[
0\
0]
1^
0>!
0k
0j
0F!
1E!
0g
0a
1f
0i
0h
1m
1l
0@!
1\!
1Y!
0V!
1R!
07!
13!
0n
0G!
1b
1j
1N!
1]!
1Z!
0W!
1T!
0c
0M!
08!
05!
12!
0L!
0C
z>
0?
0@
0D
0I
1J
0K
0L
0N!
00
01
12
04
0(
0.
0/
z3
0)
#500000
b11100001 #
b10100001 #
b100001 #
b101001 #
0P
0V
1X
1[
0U
0f
0W
1h
1Y
1k
0S!
0e
0Y!
0R!
17!
03!
0T!
0Z!
18!
15!
z?
z@
1K
1I
14
11
z.
z/
#520000
b101101 #
b100101 #
0[
1\
0k
0j
1g
1f
1n
02!
0>
03
#525000
b10100101 #
1P
1j
1U
1X!
0U!
04!
#540000
b10101101 #
1[
1>!
1k
0b
0j
1@!
0\!
1R!
13!
0n
1c
0]!
1T!
1M!
05!
12!
z>
0?
1D
0I
1L
10
04
1(
0/
z3
#550000
b11101101 #
b1101101 #
0P
1V
0>!
1b
1j
0U
1F!
0E!
1a
0f
1W
0@!
0c
0X!
1e
1G!
0b
0j
1c
0M!
1L!
1C
0D
1N!
0(
1)
#560000
b1101111 #
b1101011 #
b1100011 #
0[
0\
1]
0k
1b
1j
0F!
1E!
0g
0a
1f
1C!
0B!
1i
0`
0h
1\!
0R!
0c
0G!
0j
1D!
1a
0f
1]!
0T!
0N!
1j
0L!
1K!
1B
0C
1I
0L
00
14
0)
1*
#575000
b11100011 #
1P
0b
0j
1U
1c
1U!
1N!
#580000
b11101011 #
1[
1>!
1k
1j
1@!
0\!
1R!
03!
1n
0N!
0]!
1T!
1M!
15!
02!
0>
z?
1D
0I
1L
10
04
1(
z/
03
#600000
b11111011 #
b11011011 #
b10011011 #
b10011111 #
b11111 #
b10111 #
0P
0V
0X
1Z
0[
1\
0>!
1b
0U
0W
0C!
1B!
1`
1h
0Y
19!
1d
1_
0l
0k
1g
0@!
0c
1[!
1X!
0U!
1S!
06!
14!
0e
0D!
0a
1f
0:!
0`
0h
1\!
1Y!
0R!
07!
13!
0n
1]!
1Z!
0T!
0j
1;!
1a
0f
0M!
08!
05!
12!
0K!
0B
z>
0?
0@
0D
1I
0K
0L
1j
00
01
14
0(
0.
0/
z3
0*
1I!
1A
1+
#620000
b11111 #
1[
1k
0b
0j
0\!
1V!
17!
03!
1n
1c
0]!
1W!
18!
15!
02!
0>
z?
z@
0J
1L
10
02
z.
z/
03
#625000
b10011111 #
1P
1>!
1j
1U
1@!
0X!
0S!
16!
04!
1N!
1M!
1D
1(
#640000
b10011110 #
b10011100 #
b10011000 #
b10010000 #
0[
0\
0]
0^
0>!
0k
0j
0g
0a
1f
0i
1`
1h
09!
0m
0_
1l
0@!
0Y!
0V!
07!
0n
1b
1j
0f
1:!
0h
0N!
0Z!
0W!
0c
0;!
0M!
08!
12!
z>
0@
0D
1J
1K
11
12
0(
0.
z3
0I!
0A
0+
#650000
b11010000 #
b1010000 #
0P
1V
0j
0U
1f
1W
1e
#660000
b1011000 #
1[
1k
1j
17!
18!
z@
z.
#675000
b11011000 #
1P
1>!
0b
0j
1U
1@!
1c
0[!
1S!
14!
0e
1M!
1D
1(
#680000
b11011100 #
b11010100 #
0[
1\
0>!
0k
1b
1j
1F!
0E!
1g
1a
0f
0@!
1\!
1Y!
1R!
0c
1G!
0b
0j
1]!
1Z!
1T!
1c
0M!
1L!
1C
0D
0I
0K
0L
1N!
00
01
04
0(
1)
#700000
b11110100 #
b10110100 #
b110100 #
b111100 #
0P
0V
1X
1[
0U
0F!
1E!
0a
1f
0W
1h
1Y
1k
1[!
0S!
0G!
1b
1j
0\!
0Y!
1V!
13!
1n
0]!
0c
0Z!
1W!
0L!
05!
02!
0>
0?
0C
0J
1K
1L
0N!
10
11
02
0)
0/
03
#720000
b111110 #
b111010 #
b110010 #
0[
0\
1]
0k
0j
0g
0f
1C!
0B!
1i
0`
0h
0R!
0n
1D!
1f
0T!
12!
1K!
1B
z>
1I
14
z3
1*
#725000
b10110010 #
1P
1j
1U
0[!
1S!
04!
1e
#740000
b10111010 #
1[
1>!
1k
0b
0j
1@!
1Y!
0V!
03!
1c
1Z!
0W!
1M!
15!
z?
1D
1J
0K
01
12
1(
z/
#750000
b11111010 #
b1111010 #
0P
1V
0>!
1b
1j
0U
1a
0f
1W
0@!
0c
1[!
1X!
0S!
06!
14!
0e
0b
0j
1c
0M!
0D
1N!
0(
#760000
b1111110 #
b1110110 #
0[
1\
0k
1b
1j
1F!
0E!
1g
1f
0Y!
1n
0c
1G!
0Z!
0N!
1O!
1H!
02!
1L!
1C
0>
1K
1J!
11
03
1)
1I!
1A
1+
1M!
0K!
0B
1D
1(
0*
#775000
b11110110 #
1P
0b
0j
1U
1c
0[!
1U!
16!
04!
1e
0M!
0D
1N!
0(
1P!
1E
1'
#780000
b11111110 #
1[
1>!
1k
1j
1@!
1V!
1M!
1D
0N!
0H!
1W!
1(
0J
0J!
02
0P!
0I!
0A
0E
0'
0+
1K!
1B
1*
#790000
b1100 "
b1000 "
b0 "
0O
0S
0R
1J!
0A!
0?!
0:!
1m
0i
0Y
0W
0U
0T
0F!
0C!
0=!
0<!
1;!
0O!
0V!
1R!
13!
0n
1[!
0U!
1S!
06!
14!
0e
0m
0g
0d
1U
0>!
1N!
0J!
1A!
0K!
1P!
1I!
1Q!
1F
1G
1H
1A
1E
0B
0W!
1T!
0R!
03!
0[!
0X!
0S!
16!
04!
1O!
0*
1'
1+
1$
1%
1&
0Q!
0P!
05!
12!
1K!
1B
z>
0?
0E
0F
0G
0H
0I
1J
0T!
12
04
0$
0%
0&
0'
0/
z3
1*
15!
1Q!
1P!
1E
1F
1G
1H
z?
1I
14
z/
1$
1%
1&
1'
#800000
b11101110 #
b11101111 #
b11001111 #
b11001101 #
b10001101 #
b10001001 #
b1001 #
b1 #
0P
0V
0X
0Z
0[
0\
0]
1^
1b
0a
1`
0c
0j
0f
#820000
b1001 #
1[
1>!
1j
#825000
b10001001 #
1P
0>!
0b
0j
1c
#840000
b10001101 #
b10000101 #
0[
1\
1>!
1b
1j
1f
0c
#850000
b11000101 #
b1000101 #
0P
1V
0>!
0j
1a
0f
1j
#860000
b1001101 #
1[
1>!
0b
0j
1c
#875000
b11001101 #
1P
0>!
1j
#880000
b11001111 #
b11001011 #
b11000011 #
0[
0\
1]
1>!
0j
0a
1f
1h
1b
1j
0c
#900000
b11100011 #
b10100011 #
b100011 #
b101011 #
0P
0V
1X
1[
0f
0`
0h
1f
#920000
b101111 #
b100111 #
0[
1\
0>!
0j
1a
0f
1j
#925000
b10100111 #
1P
1>!
0b
0j
1c
#940000
b10101111 #
1[
0>!
1j
#950000
b11101111 #
b1101111 #
0P
1V
1>!
0j
1f
#960000
b1101110 #
b1101100 #
b1101000 #
b1100000 #
0[
0\
0]
0^
0>!
1b
1j
0f
1`
1h
0l
0c
0a
1f
0j
#975000
b11100000 #
1P
1>!
1j
#980000
b11101000 #
1[
0>!
0b
0j
1c
